{
  "binaries" : [{
    "hash" : "d38ca6189a8dd8d1ada537529af99402642a97e5907a02d083bb89e0544ced6e",
    "cve_name" : "dropbear_ssh",
    "name" : "dbclient",
    "version" : "2016.74",
    "options" : "default configure, default options.h, make PROGRAMS=\"dropbear dropbearkey dropbearconvert\"",
    "arch" : "armv7l, little endian",
    "compiler" : "gcc version 6.3.0 20170516 (Raspbian 6.3.0-18+rpi1)"
  }, {
    "hash" : "cfd10a570da3d4e9be77bd71d519c8374b1429dcfa73e8f5584a2faeb7352eaf",
    "cve_name" : "dropbear_ssh",
    "name" : "scp",
    "version" : "2016.74",
    "options" : "default configure, default options.h, make PROGRAMS=\"dropbear dropbearkey dropbearconvert\"",
    "arch" : "armv7l, little endian",
    "compiler" : "gcc version 6.3.0 20170516 (Raspbian 6.3.0-18+rpi1)"
  }, {
    "hash" : "bd79a0c84558bd300cb2ee229fdf616a6ce8201d15341e7ebd821ac8555c41de",
    "cve_name" : "dropbear_ssh",
    "name" : "dropbear",
    "version" : "2016.74",
    "options" : "default configure, disabled ENABLE_X11FWD, disabled ENABLE_CLI_LOCALTCPFWD, disabled ENABLE_CLI_REMOTETCPFWD, disabled ENABLE_SVR_AGENTFWD, disabled ENABLE_CLI_AGENTFWD, make PROGRAMS=\"dropbear dropbearkey dropbearconvert\"",
    "arch" : "armv7l, little endian",
    "compiler" : "gcc version 6.3.0 20170516 (Raspbian 6.3.0-18+rpi1)"
  }, {
    "hash" : "aa21d8f9e77c8ea69382817a4915e0c39e41990e092b984cecf0eedb173dd66f",
    "cve_name" : "dropbear_ssh",
    "name" : "dropbearconvert",
    "version" : "2016.74",
    "options" : "default configure, disabled ENABLE_X11FWD, disabled ENABLE_CLI_LOCALTCPFWD, disabled ENABLE_CLI_REMOTETCPFWD, disabled ENABLE_SVR_AGENTFWD, disabled ENABLE_CLI_AGENTFWD, make PROGRAMS=\"dropbear dropbearkey dropbearconvert\"",
    "arch" : "armv7l, little endian",
    "compiler" : "gcc version 6.3.0 20170516 (Raspbian 6.3.0-18+rpi1)"
  }, {
    "hash" : "a5a96427c3cf171ab7c4f543bed51359a9397f27d054eb9bdf009343c995f498",
    "cve_name" : "dropbear_ssh",
    "name" : "dropbear",
    "version" : "2016.74",
    "options" : "default configure, default options.h, make PROGRAMS=\"dropbear dropbearkey dropbearconvert\"",
    "arch" : "armv7l, little endian",
    "compiler" : "gcc version 6.3.0 20170516 (Raspbian 6.3.0-18+rpi1)"
  }, {
    "hash" : "6836bd0088f935f756645c89f10fa73431ec05fe3924e9c3be67d9345d438536",
    "cve_name" : "dropbear_ssh",
    "name" : "dropbearkey",
    "version" : "2016.74",
    "options" : "default configure, default options.h, make PROGRAMS=\"dropbear dropbearkey dropbearconvert\"",
    "arch" : "armv7l, little endian",
    "compiler" : "gcc version 6.3.0 20170516 (Raspbian 6.3.0-18+rpi1)"
  }, {
    "hash" : "544492e36b1c666042faf457022da2a9423f2ea3d99598fc7a3fc5a6b376291a",
    "cve_name" : "dropbear_ssh",
    "name" : "dropbearkey",
    "version" : "2016.74",
    "options" : "default configure, default options.h, make PROGRAMS=\"dropbear dropbearkey dropbearconvert\"",
    "arch" : "armv7l, little endian",
    "compiler" : "gcc version 6.3.0 20170516 (Raspbian 6.3.0-18+rpi1)"
  }, {
    "hash" : "43261608c64b4ae3148572afd3594a1c1e631fbbc427e27496343929589bf2b8",
    "cve_name" : "-",
    "name" : "Sofia",
    "version" : "4.02.R12.20141209",
    "options" : "unknown",
    "arch" : "unknown",
    "compiler" : "unknown"
  }, {
    "hash" : "3f0429c0a52bd37a57b837929ee8956ca61cfbe2bf4d7dc110dc67eec90a514b",
    "cve_name" : "dropbear_ssh",
    "name" : "dropbear",
    "version" : "2016.74",
    "options" : "default configure, default options.h, make PROGRAMS=\"dropbear dropbearkey dropbearconvert\"",
    "arch" : "armv7l, little endian",
    "compiler" : "gcc version 6.3.0 20170516 (Raspbian 6.3.0-18+rpi1)"
  }, {
    "hash" : "3b62ace5bc21bbc2d77494c285ebcea89ad985ba27a1d73bb9f0d278dd59b256",
    "cve_name" : "dropbear_ssh",
    "name" : "dropbear",
    "version" : "2016.74",
    "options" : "stripped, dynamically linked",
    "arch" : "arm",
    "compiler" : "unknown"
  }, {
    "hash" : "3715b499260e7ce1d45fef203678151c7e40f08d34569ab804a244a913d2abb6",
    "cve_name" : "dropbear_ssh",
    "name" : "dropbearconvert",
    "version" : "2016.74",
    "options" : "default configure, default options.h, make PROGRAMS=\"dropbear dropbearkey dropbearconvert\"",
    "arch" : "armv7l, little endian",
    "compiler" : "gcc version 6.3.0 20170516 (Raspbian 6.3.0-18+rpi1)"
  }, {
    "hash" : "2772a89d779d7379037ae84abe5e35baa4e84d15aee8da8c33defb946968daee",
    "cve_name" : "dropbear_ssh",
    "name" : "dropbearkey",
    "version" : "2016.74",
    "options" : "default configure, disabled ENABLE_X11FWD, disabled ENABLE_CLI_LOCALTCPFWD, disabled ENABLE_CLI_REMOTETCPFWD, disabled ENABLE_SVR_AGENTFWD, disabled ENABLE_CLI_AGENTFWD, make PROGRAMS=\"dropbear dropbearkey dropbearconvert\"",
    "arch" : "armv7l, little endian",
    "compiler" : "gcc version 6.3.0 20170516 (Raspbian 6.3.0-18+rpi1)"
  }, {
	"hash" : "1a198694d84898dcb1ce979fbbfb2c696aaab3f0b94da1236e11666e8ec04ca4",
    "cve_name" : "dropbear_ssh",
    "name" : "dropbearconvert",
    "version" : "2016.74",
    "options" : "default configure, default options.h, make PROGRAMS=\"dropbear dropbearkey dropbearconvert\"",
    "arch" : "armv7l, little endian",
    "compiler" : "gcc version 6.3.0 20170516 (Raspbian 6.3.0-18+rpi1)"
  }] 
}
